%YAML 1.1
%TAG !u! tag:unity3d.com,2011:
--- !u!1 &100000
GameObject:
  m_ObjectHideFlags: 0
  m_PrefabParentObject: {fileID: 0}
  m_PrefabInternal: {fileID: 100100000}
  serializedVersion: 4
  m_Component:
  - 4: {fileID: 400000}
  - 114: {fileID: 11400000}
  m_Layer: 0
  m_Name: aller28-1-new data
  m_TagString: Untagged
  m_Icon: {fileID: 0}
  m_NavMeshLayer: 0
  m_StaticEditorFlags: 0
  m_IsActive: 0
--- !u!4 &400000
Transform:
  m_ObjectHideFlags: 1
  m_PrefabParentObject: {fileID: 0}
  m_PrefabInternal: {fileID: 100100000}
  m_GameObject: {fileID: 100000}
  m_LocalRotation: {x: 0, y: 0, z: 0, w: 1}
  m_LocalPosition: {x: 0, y: 0, z: 0}
  m_LocalScale: {x: 1, y: 1, z: 1}
  m_Children: []
  m_Father: {fileID: 0}
  m_RootOrder: 0
--- !u!114 &11400000
MonoBehaviour:
  m_ObjectHideFlags: 1
  m_PrefabParentObject: {fileID: 0}
  m_PrefabInternal: {fileID: 100100000}
  m_GameObject: {fileID: 100000}
  m_Enabled: 1
  m_EditorHideFlags: 0
  m_Script: {fileID: 11500000, guid: 023bfc31841d2f24ba7eb00462467382, type: 3}
  m_Name: 
  m_EditorClassIdentifier: 
  version: 2
  lineHeight: 0.3943662
  chars:
  - p0: {x: 0, y: 0, z: 0}
    p1: {x: 0, y: 0, z: 0}
    uv0: {x: 0, y: 0, z: 0}
    uv1: {x: 0, y: 0, z: 0}
    flipped: 0
    gradientUv:
    - {x: 0, y: 0}
    - {x: 0, y: 0}
    - {x: 0, y: 0}
    - {x: 0, y: 0}
    advance: 0
    channel: 0
  - p0: {x: 0, y: 0, z: 0}
    p1: {x: 0, y: 0, z: 0}
    uv0: {x: 0, y: 0, z: 0}
    uv1: {x: 0, y: 0, z: 0}
    flipped: 0
    gradientUv:
    - {x: 0, y: 0}
    - {x: 0, y: 0}
    - {x: 0, y: 0}
    - {x: 0, y: 0}
    advance: 0
    channel: 0
  - p0: {x: 0, y: 0, z: 0}
    p1: {x: 0, y: 0, z: 0}
    uv0: {x: 0, y: 0, z: 0}
    uv1: {x: 0, y: 0, z: 0}
    flipped: 0
    gradientUv:
    - {x: 0, y: 0}
    - {x: 0, y: 0}
    - {x: 0, y: 0}
    - {x: 0, y: 0}
    advance: 0
    channel: 0
  - p0: {x: 0, y: 0, z: 0}
    p1: {x: 0, y: 0, z: 0}
    uv0: {x: 0, y: 0, z: 0}
    uv1: {x: 0, y: 0, z: 0}
    flipped: 0
    gradientUv:
    - {x: 0, y: 0}
    - {x: 0, y: 0}
    - {x: 0, y: 0}
    - {x: 0, y: 0}
    advance: 0
    channel: 0
  - p0: {x: 0, y: 0, z: 0}
    p1: {x: 0, y: 0, z: 0}
    uv0: {x: 0, y: 0, z: 0}
    uv1: {x: 0, y: 0, z: 0}
    flipped: 0
    gradientUv:
    - {x: 0, y: 0}
    - {x: 0, y: 0}
    - {x: 0, y: 0}
    - {x: 0, y: 0}
    advance: 0
    channel: 0
  - p0: {x: 0, y: 0, z: 0}
    p1: {x: 0, y: 0, z: 0}
    uv0: {x: 0, y: 0, z: 0}
    uv1: {x: 0, y: 0, z: 0}
    flipped: 0
    gradientUv:
    - {x: 0, y: 0}
    - {x: 0, y: 0}
    - {x: 0, y: 0}
    - {x: 0, y: 0}
    advance: 0
    channel: 0
  - p0: {x: 0, y: 0, z: 0}
    p1: {x: 0, y: 0, z: 0}
    uv0: {x: 0, y: 0, z: 0}
    uv1: {x: 0, y: 0, z: 0}
    flipped: 0
    gradientUv:
    - {x: 0, y: 0}
    - {x: 0, y: 0}
    - {x: 0, y: 0}
    - {x: 0, y: 0}
    advance: 0
    channel: 0
  - p0: {x: 0, y: 0, z: 0}
    p1: {x: 0, y: 0, z: 0}
    uv0: {x: 0, y: 0, z: 0}
    uv1: {x: 0, y: 0, z: 0}
    flipped: 0
    gradientUv:
    - {x: 0, y: 0}
    - {x: 0, y: 0}
    - {x: 0, y: 0}
    - {x: 0, y: 0}
    advance: 0
    channel: 0
  - p0: {x: 0, y: 0, z: 0}
    p1: {x: 0, y: 0, z: 0}
    uv0: {x: 0, y: 0, z: 0}
    uv1: {x: 0, y: 0, z: 0}
    flipped: 0
    gradientUv:
    - {x: 0, y: 0}
    - {x: 0, y: 0}
    - {x: 0, y: 0}
    - {x: 0, y: 0}
    advance: 0
    channel: 0
  - p0: {x: 0, y: 0, z: 0}
    p1: {x: 0, y: 0, z: 0}
    uv0: {x: 0, y: 0, z: 0}
    uv1: {x: 0, y: 0, z: 0}
    flipped: 0
    gradientUv:
    - {x: 0, y: 0}
    - {x: 0, y: 0}
    - {x: 0, y: 0}
    - {x: 0, y: 0}
    advance: 0
    channel: 0
  - p0: {x: 0, y: 0, z: 0}
    p1: {x: 0, y: 0, z: 0}
    uv0: {x: 0, y: 0, z: 0}
    uv1: {x: 0, y: 0, z: 0}
    flipped: 0
    gradientUv:
    - {x: 0, y: 0}
    - {x: 0, y: 0}
    - {x: 0, y: 0}
    - {x: 0, y: 0}
    advance: 0
    channel: 0
  - p0: {x: 0, y: 0, z: 0}
    p1: {x: 0, y: 0, z: 0}
    uv0: {x: 0, y: 0, z: 0}
    uv1: {x: 0, y: 0, z: 0}
    flipped: 0
    gradientUv:
    - {x: 0, y: 0}
    - {x: 0, y: 0}
    - {x: 0, y: 0}
    - {x: 0, y: 0}
    advance: 0
    channel: 0
  - p0: {x: 0, y: 0, z: 0}
    p1: {x: 0, y: 0, z: 0}
    uv0: {x: 0, y: 0, z: 0}
    uv1: {x: 0, y: 0, z: 0}
    flipped: 0
    gradientUv:
    - {x: 0, y: 0}
    - {x: 0, y: 0}
    - {x: 0, y: 0}
    - {x: 0, y: 0}
    advance: 0
    channel: 0
  - p0: {x: 0, y: 0, z: 0}
    p1: {x: 0, y: 0, z: 0}
    uv0: {x: 0, y: 0, z: 0}
    uv1: {x: 0, y: 0, z: 0}
    flipped: 0
    gradientUv:
    - {x: 0, y: 0}
    - {x: 0, y: 0}
    - {x: 0, y: 0}
    - {x: 0, y: 0}
    advance: 0
    channel: 0
  - p0: {x: 0, y: 0, z: 0}
    p1: {x: 0, y: 0, z: 0}
    uv0: {x: 0, y: 0, z: 0}
    uv1: {x: 0, y: 0, z: 0}
    flipped: 0
    gradientUv:
    - {x: 0, y: 0}
    - {x: 0, y: 0}
    - {x: 0, y: 0}
    - {x: 0, y: 0}
    advance: 0
    channel: 0
  - p0: {x: 0, y: 0, z: 0}
    p1: {x: 0, y: 0, z: 0}
    uv0: {x: 0, y: 0, z: 0}
    uv1: {x: 0, y: 0, z: 0}
    flipped: 0
    gradientUv:
    - {x: 0, y: 0}
    - {x: 0, y: 0}
    - {x: 0, y: 0}
    - {x: 0, y: 0}
    advance: 0
    channel: 0
  - p0: {x: 0, y: 0, z: 0}
    p1: {x: 0, y: 0, z: 0}
    uv0: {x: 0, y: 0, z: 0}
    uv1: {x: 0, y: 0, z: 0}
    flipped: 0
    gradientUv:
    - {x: 0, y: 0}
    - {x: 0, y: 0}
    - {x: 0, y: 0}
    - {x: 0, y: 0}
    advance: 0
    channel: 0
  - p0: {x: 0, y: 0, z: 0}
    p1: {x: 0, y: 0, z: 0}
    uv0: {x: 0, y: 0, z: 0}
    uv1: {x: 0, y: 0, z: 0}
    flipped: 0
    gradientUv:
    - {x: 0, y: 0}
    - {x: 0, y: 0}
    - {x: 0, y: 0}
    - {x: 0, y: 0}
    advance: 0
    channel: 0
  - p0: {x: 0, y: 0, z: 0}
    p1: {x: 0, y: 0, z: 0}
    uv0: {x: 0, y: 0, z: 0}
    uv1: {x: 0, y: 0, z: 0}
    flipped: 0
    gradientUv:
    - {x: 0, y: 0}
    - {x: 0, y: 0}
    - {x: 0, y: 0}
    - {x: 0, y: 0}
    advance: 0
    channel: 0
  - p0: {x: 0, y: 0, z: 0}
    p1: {x: 0, y: 0, z: 0}
    uv0: {x: 0, y: 0, z: 0}
    uv1: {x: 0, y: 0, z: 0}
    flipped: 0
    gradientUv:
    - {x: 0, y: 0}
    - {x: 0, y: 0}
    - {x: 0, y: 0}
    - {x: 0, y: 0}
    advance: 0
    channel: 0
  - p0: {x: 0, y: 0, z: 0}
    p1: {x: 0, y: 0, z: 0}
    uv0: {x: 0, y: 0, z: 0}
    uv1: {x: 0, y: 0, z: 0}
    flipped: 0
    gradientUv:
    - {x: 0, y: 0}
    - {x: 0, y: 0}
    - {x: 0, y: 0}
    - {x: 0, y: 0}
    advance: 0
    channel: 0
  - p0: {x: 0, y: 0, z: 0}
    p1: {x: 0, y: 0, z: 0}
    uv0: {x: 0, y: 0, z: 0}
    uv1: {x: 0, y: 0, z: 0}
    flipped: 0
    gradientUv:
    - {x: 0, y: 0}
    - {x: 0, y: 0}
    - {x: 0, y: 0}
    - {x: 0, y: 0}
    advance: 0
    channel: 0
  - p0: {x: 0, y: 0, z: 0}
    p1: {x: 0, y: 0, z: 0}
    uv0: {x: 0, y: 0, z: 0}
    uv1: {x: 0, y: 0, z: 0}
    flipped: 0
    gradientUv:
    - {x: 0, y: 0}
    - {x: 0, y: 0}
    - {x: 0, y: 0}
    - {x: 0, y: 0}
    advance: 0
    channel: 0
  - p0: {x: 0, y: 0, z: 0}
    p1: {x: 0, y: 0, z: 0}
    uv0: {x: 0, y: 0, z: 0}
    uv1: {x: 0, y: 0, z: 0}
    flipped: 0
    gradientUv:
    - {x: 0, y: 0}
    - {x: 0, y: 0}
    - {x: 0, y: 0}
    - {x: 0, y: 0}
    advance: 0
    channel: 0
  - p0: {x: 0, y: 0, z: 0}
    p1: {x: 0, y: 0, z: 0}
    uv0: {x: 0, y: 0, z: 0}
    uv1: {x: 0, y: 0, z: 0}
    flipped: 0
    gradientUv:
    - {x: 0, y: 0}
    - {x: 0, y: 0}
    - {x: 0, y: 0}
    - {x: 0, y: 0}
    advance: 0
    channel: 0
  - p0: {x: 0, y: 0, z: 0}
    p1: {x: 0, y: 0, z: 0}
    uv0: {x: 0, y: 0, z: 0}
    uv1: {x: 0, y: 0, z: 0}
    flipped: 0
    gradientUv:
    - {x: 0, y: 0}
    - {x: 0, y: 0}
    - {x: 0, y: 0}
    - {x: 0, y: 0}
    advance: 0
    channel: 0
  - p0: {x: 0, y: 0, z: 0}
    p1: {x: 0, y: 0, z: 0}
    uv0: {x: 0, y: 0, z: 0}
    uv1: {x: 0, y: 0, z: 0}
    flipped: 0
    gradientUv:
    - {x: 0, y: 0}
    - {x: 0, y: 0}
    - {x: 0, y: 0}
    - {x: 0, y: 0}
    advance: 0
    channel: 0
  - p0: {x: 0, y: 0, z: 0}
    p1: {x: 0, y: 0, z: 0}
    uv0: {x: 0, y: 0, z: 0}
    uv1: {x: 0, y: 0, z: 0}
    flipped: 0
    gradientUv:
    - {x: 0, y: 0}
    - {x: 0, y: 0}
    - {x: 0, y: 0}
    - {x: 0, y: 0}
    advance: 0
    channel: 0
  - p0: {x: 0, y: 0, z: 0}
    p1: {x: 0, y: 0, z: 0}
    uv0: {x: 0, y: 0, z: 0}
    uv1: {x: 0, y: 0, z: 0}
    flipped: 0
    gradientUv:
    - {x: 0, y: 0}
    - {x: 0, y: 0}
    - {x: 0, y: 0}
    - {x: 0, y: 0}
    advance: 0
    channel: 0
  - p0: {x: 0, y: 0, z: 0}
    p1: {x: 0, y: 0, z: 0}
    uv0: {x: 0, y: 0, z: 0}
    uv1: {x: 0, y: 0, z: 0}
    flipped: 0
    gradientUv:
    - {x: 0, y: 0}
    - {x: 0, y: 0}
    - {x: 0, y: 0}
    - {x: 0, y: 0}
    advance: 0
    channel: 0
  - p0: {x: 0, y: 0, z: 0}
    p1: {x: 0, y: 0, z: 0}
    uv0: {x: 0, y: 0, z: 0}
    uv1: {x: 0, y: 0, z: 0}
    flipped: 0
    gradientUv:
    - {x: 0, y: 0}
    - {x: 0, y: 0}
    - {x: 0, y: 0}
    - {x: 0, y: 0}
    advance: 0
    channel: 0
  - p0: {x: 0, y: 0, z: 0}
    p1: {x: 0, y: 0, z: 0}
    uv0: {x: 0, y: 0, z: 0}
    uv1: {x: 0, y: 0, z: 0}
    flipped: 0
    gradientUv:
    - {x: 0, y: 0}
    - {x: 0, y: 0}
    - {x: 0, y: 0}
    - {x: 0, y: 0}
    advance: 0
    channel: 0
  - p0: {x: -0.028169014, y: 0.028169014, z: 0}
    p1: {x: -0.028169014, y: 0.028169014, z: 0}
    uv0: {x: 0.016113281, y: 0.9975586, z: 0}
    uv1: {x: 0.016113281, y: 0.9975586, z: 0}
    flipped: 0
    gradientUv: []
    advance: 0.07042253
    channel: 0
  - p0: {x: 0, y: 0, z: 0}
    p1: {x: 0, y: 0, z: 0}
    uv0: {x: 0, y: 0, z: 0}
    uv1: {x: 0, y: 0, z: 0}
    flipped: 0
    gradientUv:
    - {x: 0, y: 0}
    - {x: 0, y: 0}
    - {x: 0, y: 0}
    - {x: 0, y: 0}
    advance: 0
    channel: 0
  - p0: {x: 0, y: 0, z: 0}
    p1: {x: 0, y: 0, z: 0}
    uv0: {x: 0, y: 0, z: 0}
    uv1: {x: 0, y: 0, z: 0}
    flipped: 0
    gradientUv:
    - {x: 0, y: 0}
    - {x: 0, y: 0}
    - {x: 0, y: 0}
    - {x: 0, y: 0}
    advance: 0
    channel: 0
  - p0: {x: 0, y: 0, z: 0}
    p1: {x: 0, y: 0, z: 0}
    uv0: {x: 0, y: 0, z: 0}
    uv1: {x: 0, y: 0, z: 0}
    flipped: 0
    gradientUv:
    - {x: 0, y: 0}
    - {x: 0, y: 0}
    - {x: 0, y: 0}
    - {x: 0, y: 0}
    advance: 0
    channel: 0
  - p0: {x: 0, y: 0.36619717, z: 0}
    p1: {x: 0.1971831, y: 0.028169006, z: 0}
    uv0: {x: 0.78222656, y: 0.12158203, z: 0}
    uv1: {x: 0.7890625, y: 0.10986328, z: 0}
    flipped: 0
    gradientUv: []
    advance: 0.1971831
    channel: 0
  - p0: {x: 0, y: 0, z: 0}
    p1: {x: 0, y: 0, z: 0}
    uv0: {x: 0, y: 0, z: 0}
    uv1: {x: 0, y: 0, z: 0}
    flipped: 0
    gradientUv:
    - {x: 0, y: 0}
    - {x: 0, y: 0}
    - {x: 0, y: 0}
    - {x: 0, y: 0}
    advance: 0
    channel: 0
  - p0: {x: 0, y: 0, z: 0}
    p1: {x: 0, y: 0, z: 0}
    uv0: {x: 0, y: 0, z: 0}
    uv1: {x: 0, y: 0, z: 0}
    flipped: 0
    gradientUv:
    - {x: 0, y: 0}
    - {x: 0, y: 0}
    - {x: 0, y: 0}
    - {x: 0, y: 0}
    advance: 0
    channel: 0
  - p0: {x: 0, y: 0.33802816, z: 0}
    p1: {x: 0.07042253, y: 0.2112676, z: 0}
    uv0: {x: 0.2705078, y: 0.99902344, z: 0}
    uv1: {x: 0.27490234, y: 0.99658203, z: 0}
    flipped: 1
    gradientUv: []
    advance: 0.07042253
    channel: 0
  - p0: {x: 0, y: 0, z: 0}
    p1: {x: 0, y: 0, z: 0}
    uv0: {x: 0, y: 0, z: 0}
    uv1: {x: 0, y: 0, z: 0}
    flipped: 0
    gradientUv:
    - {x: 0, y: 0}
    - {x: 0, y: 0}
    - {x: 0, y: 0}
    - {x: 0, y: 0}
    advance: 0
    channel: 0
  - p0: {x: 0, y: 0, z: 0}
    p1: {x: 0, y: 0, z: 0}
    uv0: {x: 0, y: 0, z: 0}
    uv1: {x: 0, y: 0, z: 0}
    flipped: 0
    gradientUv:
    - {x: 0, y: 0}
    - {x: 0, y: 0}
    - {x: 0, y: 0}
    - {x: 0, y: 0}
    advance: 0
    channel: 0
  - p0: {x: 0, y: 0, z: 0}
    p1: {x: 0, y: 0, z: 0}
    uv0: {x: 0, y: 0, z: 0}
    uv1: {x: 0, y: 0, z: 0}
    flipped: 0
    gradientUv:
    - {x: 0, y: 0}
    - {x: 0, y: 0}
    - {x: 0, y: 0}
    - {x: 0, y: 0}
    advance: 0
    channel: 0
  - p0: {x: 0, y: 0, z: 0}
    p1: {x: 0, y: 0, z: 0}
    uv0: {x: 0, y: 0, z: 0}
    uv1: {x: 0, y: 0, z: 0}
    flipped: 0
    gradientUv:
    - {x: 0, y: 0}
    - {x: 0, y: 0}
    - {x: 0, y: 0}
    - {x: 0, y: 0}
    advance: 0
    channel: 0
  - p0: {x: -0.014084507, y: 0.14084506, z: 0}
    p1: {x: 0.08450704, y: 0.028169006, z: 0}
    uv0: {x: 0.4790039, y: 0.67089844, z: 0}
    uv1: {x: 0.48242188, y: 0.6669922, z: 0}
    flipped: 0
    gradientUv: []
    advance: 0.07042253
    channel: 0
  - p0: {x: -0.014084507, y: 0.2112676, z: 0}
    p1: {x: 0.12676056, y: 0.14084508, z: 0}
    uv0: {x: 0.24267578, y: 0.99902344, z: 0}
    uv1: {x: 0.2475586, y: 0.99658203, z: 0}
    flipped: 0
    gradientUv: []
    advance: 0.112676054
    channel: 0
  - p0: {x: 0, y: 0.14084506, z: 0}
    p1: {x: 0.08450704, y: 0.07042253, z: 0}
    uv0: {x: 0.29345703, y: 0.99902344, z: 0}
    uv1: {x: 0.29638672, y: 0.99658203, z: 0}
    flipped: 0
    gradientUv: []
    advance: 0.08450704
    channel: 0
  - p0: {x: -0.014084507, y: 0.33802816, z: 0}
    p1: {x: 0.14084506, y: 0.07042253, z: 0}
    uv0: {x: 0.9038086, y: 0.5629883, z: 0}
    uv1: {x: 0.9091797, y: 0.55371094, z: 0}
    flipped: 0
    gradientUv: []
    advance: 0.12676056
    channel: 0
  - p0: {x: -0.014084507, y: 0.30985916, z: 0}
    p1: {x: 0.1971831, y: 0.070422545, z: 0}
    uv0: {x: 0.4506836, y: 0.4765625, z: 0}
    uv1: {x: 0.45898438, y: 0.46923828, z: 0}
    flipped: 1
    gradientUv: []
    advance: 0.1971831
    channel: 0
  - p0: {x: 0.014084507, y: 0.30985916, z: 0}
    p1: {x: 0.1971831, y: 0.070422545, z: 0}
    uv0: {x: 0.43945312, y: 0.49072266, z: 0}
    uv1: {x: 0.4477539, y: 0.484375, z: 0}
    flipped: 1
    gradientUv: []
    advance: 0.1971831
    channel: 0
  - p0: {x: 0, y: 0.30985916, z: 0}
    p1: {x: 0.1971831, y: 0.070422545, z: 0}
    uv0: {x: 0.6904297, y: 0.3720703, z: 0}
    uv1: {x: 0.6972656, y: 0.36376953, z: 0}
    flipped: 0
    gradientUv: []
    advance: 0.1971831
    channel: 0
  - p0: {x: -0.014084507, y: 0.30985916, z: 0}
    p1: {x: 0.18309858, y: 0.042253528, z: 0}
    uv0: {x: 0.39941406, y: 0.20800781, z: 0}
    uv1: {x: 0.40625, y: 0.19873047, z: 0}
    flipped: 0
    gradientUv: []
    advance: 0.1971831
    channel: 0
  - p0: {x: -0.014084507, y: 0.30985916, z: 0}
    p1: {x: 0.2112676, y: 0.056338035, z: 0}
    uv0: {x: 0.65478516, y: 0.45117188, z: 0}
    uv1: {x: 0.6635742, y: 0.44335938, z: 0}
    flipped: 1
    gradientUv: []
    advance: 0.1971831
    channel: 0
  - p0: {x: 0, y: 0.30985916, z: 0}
    p1: {x: 0.18309858, y: 0.042253528, z: 0}
    uv0: {x: 0.71728516, y: 0.28564453, z: 0}
    uv1: {x: 0.7236328, y: 0.2763672, z: 0}
    flipped: 0
    gradientUv: []
    advance: 0.1971831
    channel: 0
  - p0: {x: 0, y: 0.33802816, z: 0}
    p1: {x: 0.1971831, y: 0.07042253, z: 0}
    uv0: {x: 0.390625, y: 0.20947266, z: 0}
    uv1: {x: 0.39746094, y: 0.20019531, z: 0}
    flipped: 0
    gradientUv: []
    advance: 0.1971831
    channel: 0
  - p0: {x: 0, y: 0.30985916, z: 0}
    p1: {x: 0.1971831, y: 0.042253528, z: 0}
    uv0: {x: 0.39941406, y: 0.21923828, z: 0}
    uv1: {x: 0.40625, y: 0.20996094, z: 0}
    flipped: 0
    gradientUv: []
    advance: 0.1971831
    channel: 0
  - p0: {x: -0.014084507, y: 0.33802816, z: 0}
    p1: {x: 0.1971831, y: 0.07042253, z: 0}
    uv0: {x: 0.6977539, y: 0.47558594, z: 0}
    uv1: {x: 0.70703125, y: 0.46826172, z: 0}
    flipped: 1
    gradientUv: []
    advance: 0.1971831
    channel: 0
  - p0: {x: -0.014084507, y: 0.30985916, z: 0}
    p1: {x: 0.1971831, y: 0.042253528, z: 0}
    uv0: {x: 0.7163086, y: 0.47851562, z: 0}
    uv1: {x: 0.7236328, y: 0.46923828, z: 0}
    flipped: 0
    gradientUv: []
    advance: 0.1971831
    channel: 0
  - p0: {x: 0, y: 0.26760563, z: 0}
    p1: {x: 0.08450704, y: 0.07042254, z: 0}
    uv0: {x: 0.99609375, y: 0.5878906, z: 0}
    uv1: {x: 0.99902344, y: 0.5810547, z: 0}
    flipped: 0
    gradientUv: []
    advance: 0.08450704
    channel: 0
  - p0: {x: -0.014084507, y: 0.26760563, z: 0}
    p1: {x: 0.08450704, y: 0.028169017, z: 0}
    uv0: {x: 0.4790039, y: 0.6142578, z: 0}
    uv1: {x: 0.48242188, y: 0.60595703, z: 0}
    flipped: 0
    gradientUv: []
    advance: 0.08450704
    channel: 0
  - p0: {x: 0, y: 0, z: 0}
    p1: {x: 0, y: 0, z: 0}
    uv0: {x: 0, y: 0, z: 0}
    uv1: {x: 0, y: 0, z: 0}
    flipped: 0
    gradientUv:
    - {x: 0, y: 0}
    - {x: 0, y: 0}
    - {x: 0, y: 0}
    - {x: 0, y: 0}
    advance: 0
    channel: 0
  - p0: {x: 0, y: 0, z: 0}
    p1: {x: 0, y: 0, z: 0}
    uv0: {x: 0, y: 0, z: 0}
    uv1: {x: 0, y: 0, z: 0}
    flipped: 0
    gradientUv:
    - {x: 0, y: 0}
    - {x: 0, y: 0}
    - {x: 0, y: 0}
    - {x: 0, y: 0}
    advance: 0
    channel: 0
  - p0: {x: 0, y: 0, z: 0}
    p1: {x: 0, y: 0, z: 0}
    uv0: {x: 0, y: 0, z: 0}
    uv1: {x: 0, y: 0, z: 0}
    flipped: 0
    gradientUv:
    - {x: 0, y: 0}
    - {x: 0, y: 0}
    - {x: 0, y: 0}
    - {x: 0, y: 0}
    advance: 0
    channel: 0
  - p0: {x: 0, y: 0, z: 0}
    p1: {x: 0, y: 0, z: 0}
    uv0: {x: 0, y: 0, z: 0}
    uv1: {x: 0, y: 0, z: 0}
    flipped: 0
    gradientUv:
    - {x: 0, y: 0}
    - {x: 0, y: 0}
    - {x: 0, y: 0}
    - {x: 0, y: 0}
    advance: 0
    channel: 0
  - p0: {x: 0, y: 0.33802816, z: 0}
    p1: {x: 0.33802816, y: 0.014084507, z: 0}
    uv0: {x: 0.60839844, y: 0.3774414, z: 0}
    uv1: {x: 0.6201172, y: 0.36621094, z: 0}
    flipped: 0
    gradientUv: []
    advance: 0.32394364
    channel: 0
  - p0: {x: -0.014084507, y: 0.33802816, z: 0}
    p1: {x: 0.2112676, y: 0.07042253, z: 0}
    uv0: {x: 0.59033203, y: 0.43017578, z: 0}
    uv1: {x: 0.5996094, y: 0.42236328, z: 0}
    flipped: 1
    gradientUv: []
    advance: 0.1971831
    channel: 0
  - p0: {x: 0, y: 0.33802816, z: 0}
    p1: {x: 0.1971831, y: 0.07042253, z: 0}
    uv0: {x: 0.390625, y: 0.22070312, z: 0}
    uv1: {x: 0.39746094, y: 0.21142578, z: 0}
    flipped: 0
    gradientUv: []
    advance: 0.1971831
    channel: 0
  - p0: {x: 0, y: 0.33802816, z: 0}
    p1: {x: 0.2112676, y: 0.07042253, z: 0}
    uv0: {x: 0.7163086, y: 0.4897461, z: 0}
    uv1: {x: 0.7236328, y: 0.48046875, z: 0}
    flipped: 0
    gradientUv: []
    advance: 0.1971831
    channel: 0
  - p0: {x: 0, y: 0.33802816, z: 0}
    p1: {x: 0.22535211, y: 0.07042253, z: 0}
    uv0: {x: 0.578125, y: 0.43066406, z: 0}
    uv1: {x: 0.58740234, y: 0.42285156, z: 0}
    flipped: 1
    gradientUv: []
    advance: 0.22535211
    channel: 0
  - p0: {x: 0, y: 0.33802816, z: 0}
    p1: {x: 0.18309858, y: 0.07042253, z: 0}
    uv0: {x: 0.71728516, y: 0.296875, z: 0}
    uv1: {x: 0.7236328, y: 0.28759766, z: 0}
    flipped: 0
    gradientUv: []
    advance: 0.16901408
    channel: 0
  - p0: {x: 0, y: 0.33802816, z: 0}
    p1: {x: 0.18309858, y: 0.07042253, z: 0}
    uv0: {x: 0.71728516, y: 0.30810547, z: 0}
    uv1: {x: 0.7236328, y: 0.29882812, z: 0}
    flipped: 0
    gradientUv: []
    advance: 0.16901408
    channel: 0
  - p0: {x: 0, y: 0.33802816, z: 0}
    p1: {x: 0.22535211, y: 0.07042253, z: 0}
    uv0: {x: 0.5644531, y: 0.43359375, z: 0}
    uv1: {x: 0.57373047, y: 0.42578125, z: 0}
    flipped: 1
    gradientUv: []
    advance: 0.22535211
    channel: 0
  - p0: {x: 0, y: 0.33802816, z: 0}
    p1: {x: 0.22535211, y: 0.07042253, z: 0}
    uv0: {x: 0.6015625, y: 0.43017578, z: 0}
    uv1: {x: 0.61083984, y: 0.42236328, z: 0}
    flipped: 1
    gradientUv: []
    advance: 0.22535211
    channel: 0
  - p0: {x: 0, y: 0.33802816, z: 0}
    p1: {x: 0.08450704, y: 0.07042253, z: 0}
    uv0: {x: 0.99609375, y: 0.53808594, z: 0}
    uv1: {x: 0.99902344, y: 0.5288086, z: 0}
    flipped: 0
    gradientUv: []
    advance: 0.08450704
    channel: 0
  - p0: {x: -0.014084507, y: 0.33802816, z: 0}
    p1: {x: 0.12676056, y: 0.07042253, z: 0}
    uv0: {x: 0.91503906, y: 0.8647461, z: 0}
    uv1: {x: 0.9199219, y: 0.85546875, z: 0}
    flipped: 0
    gradientUv: []
    advance: 0.12676056
    channel: 0
  - p0: {x: 0, y: 0.33802816, z: 0}
    p1: {x: 0.2112676, y: 0.07042253, z: 0}
    uv0: {x: 0.58935547, y: 0.43945312, z: 0}
    uv1: {x: 0.5986328, y: 0.4321289, z: 0}
    flipped: 1
    gradientUv: []
    advance: 0.1971831
    channel: 0
  - p0: {x: 0, y: 0.33802816, z: 0}
    p1: {x: 0.18309858, y: 0.07042253, z: 0}
    uv0: {x: 0.71728516, y: 0.31933594, z: 0}
    uv1: {x: 0.7236328, y: 0.3100586, z: 0}
    flipped: 0
    gradientUv: []
    advance: 0.15492958
    channel: 0
  - p0: {x: 0, y: 0.33802816, z: 0}
    p1: {x: 0.26760563, y: 0.07042253, z: 0}
    uv0: {x: 0.6464844, y: 0.43115234, z: 0}
    uv1: {x: 0.6557617, y: 0.421875, z: 0}
    flipped: 0
    gradientUv: []
    advance: 0.26760563
    channel: 0
  - p0: {x: 0, y: 0.33802816, z: 0}
    p1: {x: 0.2112676, y: 0.07042253, z: 0}
    uv0: {x: 0.60058594, y: 0.43945312, z: 0}
    uv1: {x: 0.6098633, y: 0.4321289, z: 0}
    flipped: 1
    gradientUv: []
    advance: 0.22535211
    channel: 0
  - p0: {x: 0, y: 0.33802816, z: 0}
    p1: {x: 0.23943661, y: 0.07042253, z: 0}
    uv0: {x: 0.3852539, y: 0.46826172, z: 0}
    uv1: {x: 0.39453125, y: 0.45996094, z: 0}
    flipped: 1
    gradientUv: []
    advance: 0.23943661
    channel: 0
  - p0: {x: 0, y: 0.33802816, z: 0}
    p1: {x: 0.1971831, y: 0.07042253, z: 0}
    uv0: {x: 0.39941406, y: 0.23046875, z: 0}
    uv1: {x: 0.40625, y: 0.2211914, z: 0}
    flipped: 0
    gradientUv: []
    advance: 0.18309858
    channel: 0
  - p0: {x: 0, y: 0.33802816, z: 0}
    p1: {x: 0.23943661, y: 0.014084507, z: 0}
    uv0: {x: 0.5185547, y: 0.43115234, z: 0}
    uv1: {x: 0.52978516, y: 0.42285156, z: 0}
    flipped: 1
    gradientUv: []
    advance: 0.23943661
    channel: 0
  - p0: {x: 0, y: 0.33802816, z: 0}
    p1: {x: 0.2112676, y: 0.07042253, z: 0}
    uv0: {x: 0.5756836, y: 0.4399414, z: 0}
    uv1: {x: 0.58496094, y: 0.4326172, z: 0}
    flipped: 1
    gradientUv: []
    advance: 0.1971831
    channel: 0
  - p0: {x: -0.014084507, y: 0.33802816, z: 0}
    p1: {x: 0.18309858, y: 0.07042253, z: 0}
    uv0: {x: 0.390625, y: 0.2319336, z: 0}
    uv1: {x: 0.39746094, y: 0.22265625, z: 0}
    flipped: 0
    gradientUv: []
    advance: 0.18309858
    channel: 0
  - p0: {x: -0.014084507, y: 0.33802816, z: 0}
    p1: {x: 0.18309858, y: 0.07042253, z: 0}
    uv0: {x: 0.39941406, y: 0.24169922, z: 0}
    uv1: {x: 0.40625, y: 0.23242188, z: 0}
    flipped: 0
    gradientUv: []
    advance: 0.16901408
    channel: 0
  - p0: {x: 0, y: 0.33802816, z: 0}
    p1: {x: 0.2112676, y: 0.07042253, z: 0}
    uv0: {x: 0.5410156, y: 0.43798828, z: 0}
    uv1: {x: 0.55029297, y: 0.43066406, z: 0}
    flipped: 1
    gradientUv: []
    advance: 0.2112676
    channel: 0
  - p0: {x: -0.014084507, y: 0.33802816, z: 0}
    p1: {x: 0.22535211, y: 0.07042253, z: 0}
    uv0: {x: 0.39648438, y: 0.4765625, z: 0}
    uv1: {x: 0.40576172, y: 0.46826172, z: 0}
    flipped: 1
    gradientUv: []
    advance: 0.1971831
    channel: 0
  - p0: {x: -0.014084507, y: 0.33802816, z: 0}
    p1: {x: 0.30985916, y: 0.07042253, z: 0}
    uv0: {x: 0.69921875, y: 0.40039062, z: 0}
    uv1: {x: 0.7104492, y: 0.39111328, z: 0}
    flipped: 0
    gradientUv: []
    advance: 0.29577464
    channel: 0
  - p0: {x: -0.014084507, y: 0.33802816, z: 0}
    p1: {x: 0.2112676, y: 0.07042253, z: 0}
    uv0: {x: 0.61279297, y: 0.43945312, z: 0}
    uv1: {x: 0.6220703, y: 0.43164062, z: 0}
    flipped: 1
    gradientUv: []
    advance: 0.1971831
    channel: 0
  - p0: {x: -0.014084507, y: 0.33802816, z: 0}
    p1: {x: 0.2112676, y: 0.07042253, z: 0}
    uv0: {x: 0.62402344, y: 0.4404297, z: 0}
    uv1: {x: 0.6333008, y: 0.4326172, z: 0}
    flipped: 1
    gradientUv: []
    advance: 0.1971831
    channel: 0
  - p0: {x: -0.014084507, y: 0.33802816, z: 0}
    p1: {x: 0.1971831, y: 0.07042253, z: 0}
    uv0: {x: 0.52978516, y: 0.4423828, z: 0}
    uv1: {x: 0.5390625, y: 0.4350586, z: 0}
    flipped: 1
    gradientUv: []
    advance: 0.18309858
    channel: 0
  - p0: {x: 0, y: 0, z: 0}
    p1: {x: 0, y: 0, z: 0}
    uv0: {x: 0, y: 0, z: 0}
    uv1: {x: 0, y: 0, z: 0}
    flipped: 0
    gradientUv:
    - {x: 0, y: 0}
    - {x: 0, y: 0}
    - {x: 0, y: 0}
    - {x: 0, y: 0}
    advance: 0
    channel: 0
  - p0: {x: 0, y: 0, z: 0}
    p1: {x: 0, y: 0, z: 0}
    uv0: {x: 0, y: 0, z: 0}
    uv1: {x: 0, y: 0, z: 0}
    flipped: 0
    gradientUv:
    - {x: 0, y: 0}
    - {x: 0, y: 0}
    - {x: 0, y: 0}
    - {x: 0, y: 0}
    advance: 0
    channel: 0
  - p0: {x: 0, y: 0, z: 0}
    p1: {x: 0, y: 0, z: 0}
    uv0: {x: 0, y: 0, z: 0}
    uv1: {x: 0, y: 0, z: 0}
    flipped: 0
    gradientUv:
    - {x: 0, y: 0}
    - {x: 0, y: 0}
    - {x: 0, y: 0}
    - {x: 0, y: 0}
    advance: 0
    channel: 0
  - p0: {x: 0, y: 0, z: 0}
    p1: {x: 0, y: 0, z: 0}
    uv0: {x: 0, y: 0, z: 0}
    uv1: {x: 0, y: 0, z: 0}
    flipped: 0
    gradientUv:
    - {x: 0, y: 0}
    - {x: 0, y: 0}
    - {x: 0, y: 0}
    - {x: 0, y: 0}
    advance: 0
    channel: 0
  - p0: {x: 0, y: 0, z: 0}
    p1: {x: 0, y: 0, z: 0}
    uv0: {x: 0, y: 0, z: 0}
    uv1: {x: 0, y: 0, z: 0}
    flipped: 0
    gradientUv:
    - {x: 0, y: 0}
    - {x: 0, y: 0}
    - {x: 0, y: 0}
    - {x: 0, y: 0}
    advance: 0
    channel: 0
  - p0: {x: 0.014084507, y: 0.33802816, z: 0}
    p1: {x: 0.14084506, y: 0.26760563, z: 0}
    uv0: {x: 0.26416016, y: 0.99902344, z: 0}
    uv1: {x: 0.2685547, y: 0.99658203, z: 0}
    flipped: 0
    gradientUv: []
    advance: 0.15492958
    channel: 0
  - p0: {x: -0.014084507, y: 0.26760563, z: 0}
    p1: {x: 0.16901408, y: 0.07042254, z: 0}
    uv0: {x: 0.49951172, y: 0.4790039, z: 0}
    uv1: {x: 0.5058594, y: 0.47216797, z: 0}
    flipped: 0
    gradientUv: []
    advance: 0.16901408
    channel: 0
  - p0: {x: 0, y: 0.33802816, z: 0}
    p1: {x: 0.1971831, y: 0.07042253, z: 0}
    uv0: {x: 0.390625, y: 0.24316406, z: 0}
    uv1: {x: 0.39746094, y: 0.23388672, z: 0}
    flipped: 0
    gradientUv: []
    advance: 0.1971831
    channel: 0
  - p0: {x: -0.014084507, y: 0.26760563, z: 0}
    p1: {x: 0.16901408, y: 0.07042254, z: 0}
    uv0: {x: 0.4814453, y: 0.48046875, z: 0}
    uv1: {x: 0.48828125, y: 0.4741211, z: 0}
    flipped: 1
    gradientUv: []
    advance: 0.15492958
    channel: 0
  - p0: {x: -0.014084507, y: 0.33802816, z: 0}
    p1: {x: 0.18309858, y: 0.07042253, z: 0}
    uv0: {x: 0.39941406, y: 0.2529297, z: 0}
    uv1: {x: 0.40625, y: 0.24365234, z: 0}
    flipped: 0
    gradientUv: []
    advance: 0.18309858
    channel: 0
  - p0: {x: -0.014084507, y: 0.26760563, z: 0}
    p1: {x: 0.18309858, y: 0.07042254, z: 0}
    uv0: {x: 0.5385742, y: 0.46484375, z: 0}
    uv1: {x: 0.54541016, y: 0.4580078, z: 0}
    flipped: 0
    gradientUv: []
    advance: 0.18309858
    channel: 0
  - p0: {x: -0.014084507, y: 0.33802816, z: 0}
    p1: {x: 0.14084506, y: 0.07042253, z: 0}
    uv0: {x: 0.9038086, y: 0.57421875, z: 0}
    uv1: {x: 0.9091797, y: 0.5649414, z: 0}
    flipped: 0
    gradientUv: []
    advance: 0.12676056
    channel: 0
  - p0: {x: -0.014084507, y: 0.26760563, z: 0}
    p1: {x: 0.1971831, y: -0.014084503, z: 0}
    uv0: {x: 0.39892578, y: 0.26464844, z: 0}
    uv1: {x: 0.40625, y: 0.2548828, z: 0}
    flipped: 0
    gradientUv: []
    advance: 0.18309858
    channel: 0
  - p0: {x: 0, y: 0.33802816, z: 0}
    p1: {x: 0.18309858, y: 0.07042253, z: 0}
    uv0: {x: 0.71728516, y: 0.3305664, z: 0}
    uv1: {x: 0.7236328, y: 0.32128906, z: 0}
    flipped: 0
    gradientUv: []
    advance: 0.18309858
    channel: 0
  - p0: {x: -0.014084507, y: 0.33802816, z: 0}
    p1: {x: 0.09859155, y: 0.07042253, z: 0}
    uv0: {x: 0.9111328, y: 0.9868164, z: 0}
    uv1: {x: 0.92041016, y: 0.98291016, z: 0}
    flipped: 1
    gradientUv: []
    advance: 0.09859155
    channel: 0
  - p0: {x: -0.04225352, y: 0.33802816, z: 0}
    p1: {x: 0.09859155, y: 0.014084507, z: 0}
    uv0: {x: 0.54541016, y: 0.99902344, z: 0}
    uv1: {x: 0.5566406, y: 0.9941406, z: 0}
    flipped: 1
    gradientUv: []
    advance: 0.09859155
    channel: 0
  - p0: {x: 0, y: 0.33802816, z: 0}
    p1: {x: 0.18309858, y: 0.07042253, z: 0}
    uv0: {x: 0.6904297, y: 0.3618164, z: 0}
    uv1: {x: 0.69677734, y: 0.35253906, z: 0}
    flipped: 0
    gradientUv: []
    advance: 0.16901408
    channel: 0
  - p0: {x: 0, y: 0.33802816, z: 0}
    p1: {x: 0.112676054, y: 0.07042253, z: 0}
    uv0: {x: 0.7192383, y: 0.033691406, z: 0}
    uv1: {x: 0.72314453, y: 0.024414062, z: 0}
    flipped: 0
    gradientUv: []
    advance: 0.09859155
    channel: 0
  - p0: {x: 0, y: 0.26760563, z: 0}
    p1: {x: 0.28169012, y: 0.07042254, z: 0}
    uv0: {x: 0.39941406, y: 0.19677734, z: 0}
    uv1: {x: 0.40625, y: 0.18701172, z: 0}
    flipped: 1
    gradientUv: []
    advance: 0.28169012
    channel: 0
  - p0: {x: 0, y: 0.26760563, z: 0}
    p1: {x: 0.18309858, y: 0.07042254, z: 0}
    uv0: {x: 0.49023438, y: 0.4868164, z: 0}
    uv1: {x: 0.4970703, y: 0.48046875, z: 0}
    flipped: 1
    gradientUv: []
    advance: 0.18309858
    channel: 0
  - p0: {x: -0.014084507, y: 0.26760563, z: 0}
    p1: {x: 0.1971831, y: 0.07042254, z: 0}
    uv0: {x: 0.6176758, y: 0.44921875, z: 0}
    uv1: {x: 0.625, y: 0.4423828, z: 0}
    flipped: 0
    gradientUv: []
    advance: 0.18309858
    channel: 0
  - p0: {x: 0, y: 0.26760563, z: 0}
    p1: {x: 0.1971831, y: -0.014084503, z: 0}
    uv0: {x: 0.39941406, y: 0.14990234, z: 0}
    uv1: {x: 0.40625, y: 0.14013672, z: 0}
    flipped: 0
    gradientUv: []
    advance: 0.1971831
    channel: 0
  - p0: {x: -0.014084507, y: 0.26760563, z: 0}
    p1: {x: 0.18309858, y: -0.014084503, z: 0}
    uv0: {x: 0.39941406, y: 0.1616211, z: 0}
    uv1: {x: 0.40625, y: 0.15185547, z: 0}
    flipped: 0
    gradientUv: []
    advance: 0.18309858
    channel: 0
  - p0: {x: 0, y: 0.26760563, z: 0}
    p1: {x: 0.14084506, y: 0.07042254, z: 0}
    uv0: {x: 0.7192383, y: 0.08154297, z: 0}
    uv1: {x: 0.7241211, y: 0.07470703, z: 0}
    flipped: 0
    gradientUv: []
    advance: 0.12676056
    channel: 0
  - p0: {x: -0.014084507, y: 0.26760563, z: 0}
    p1: {x: 0.15492958, y: 0.07042254, z: 0}
    uv0: {x: 0.5332031, y: 0.39257812, z: 0}
    uv1: {x: 0.5390625, y: 0.3857422, z: 0}
    flipped: 0
    gradientUv: []
    advance: 0.14084506
    channel: 0
  - p0: {x: -0.014084507, y: 0.30985916, z: 0}
    p1: {x: 0.14084506, y: 0.070422545, z: 0}
    uv0: {x: 0.9038086, y: 0.58447266, z: 0}
    uv1: {x: 0.9091797, y: 0.5761719, z: 0}
    flipped: 0
    gradientUv: []
    advance: 0.112676054
    channel: 0
  - p0: {x: 0, y: 0.26760563, z: 0}
    p1: {x: 0.18309858, y: 0.07042254, z: 0}
    uv0: {x: 0.47021484, y: 0.48339844, z: 0}
    uv1: {x: 0.47705078, y: 0.47705078, z: 0}
    flipped: 1
    gradientUv: []
    advance: 0.18309858
    channel: 0
  - p0: {x: -0.014084507, y: 0.26760563, z: 0}
    p1: {x: 0.18309858, y: 0.07042254, z: 0}
    uv0: {x: 0.5283203, y: 0.46923828, z: 0}
    uv1: {x: 0.53515625, y: 0.46240234, z: 0}
    flipped: 0
    gradientUv: []
    advance: 0.16901408
    channel: 0
  - p0: {x: -0.014084507, y: 0.26760563, z: 0}
    p1: {x: 0.26760563, y: 0.07042254, z: 0}
    uv0: {x: 0.390625, y: 0.19824219, z: 0}
    uv1: {x: 0.39746094, y: 0.18847656, z: 0}
    flipped: 1
    gradientUv: []
    advance: 0.2535211
    channel: 0
  - p0: {x: -0.014084507, y: 0.26760563, z: 0}
    p1: {x: 0.18309858, y: 0.07042254, z: 0}
    uv0: {x: 0.5180664, y: 0.46972656, z: 0}
    uv1: {x: 0.52490234, y: 0.46289062, z: 0}
    flipped: 0
    gradientUv: []
    advance: 0.16901408
    channel: 0
  - p0: {x: -0.014084507, y: 0.26760563, z: 0}
    p1: {x: 0.18309858, y: -0.014084503, z: 0}
    uv0: {x: 0.390625, y: 0.16308594, z: 0}
    uv1: {x: 0.39746094, y: 0.15332031, z: 0}
    flipped: 0
    gradientUv: []
    advance: 0.16901408
    channel: 0
  - p0: {x: -0.014084507, y: 0.26760563, z: 0}
    p1: {x: 0.16901408, y: 0.07042254, z: 0}
    uv0: {x: 0.45947266, y: 0.48876953, z: 0}
    uv1: {x: 0.4663086, y: 0.48242188, z: 0}
    flipped: 1
    gradientUv: []
    advance: 0.15492958
    channel: 0
  - p0: {x: 0, y: 0, z: 0}
    p1: {x: 0, y: 0, z: 0}
    uv0: {x: 0, y: 0, z: 0}
    uv1: {x: 0, y: 0, z: 0}
    flipped: 0
    gradientUv:
    - {x: 0, y: 0}
    - {x: 0, y: 0}
    - {x: 0, y: 0}
    - {x: 0, y: 0}
    advance: 0
    channel: 0
  - p0: {x: 0, y: 0, z: 0}
    p1: {x: 0, y: 0, z: 0}
    uv0: {x: 0, y: 0, z: 0}
    uv1: {x: 0, y: 0, z: 0}
    flipped: 0
    gradientUv:
    - {x: 0, y: 0}
    - {x: 0, y: 0}
    - {x: 0, y: 0}
    - {x: 0, y: 0}
    advance: 0
    channel: 0
  - p0: {x: 0, y: 0, z: 0}
    p1: {x: 0, y: 0, z: 0}
    uv0: {x: 0, y: 0, z: 0}
    uv1: {x: 0, y: 0, z: 0}
    flipped: 0
    gradientUv:
    - {x: 0, y: 0}
    - {x: 0, y: 0}
    - {x: 0, y: 0}
    - {x: 0, y: 0}
    advance: 0
    channel: 0
  - p0: {x: 0, y: 0, z: 0}
    p1: {x: 0, y: 0, z: 0}
    uv0: {x: 0, y: 0, z: 0}
    uv1: {x: 0, y: 0, z: 0}
    flipped: 0
    gradientUv:
    - {x: 0, y: 0}
    - {x: 0, y: 0}
    - {x: 0, y: 0}
    - {x: 0, y: 0}
    advance: 0
    channel: 0
  - p0: {x: 0, y: 0, z: 0}
    p1: {x: 0, y: 0, z: 0}
    uv0: {x: 0, y: 0, z: 0}
    uv1: {x: 0, y: 0, z: 0}
    flipped: 0
    gradientUv:
    - {x: 0, y: 0}
    - {x: 0, y: 0}
    - {x: 0, y: 0}
    - {x: 0, y: 0}
    advance: 0
    channel: 0
  - p0: {x: 0, y: 0, z: 0}
    p1: {x: 0, y: 0, z: 0}
    uv0: {x: 0, y: 0, z: 0}
    uv1: {x: 0, y: 0, z: 0}
    flipped: 0
    gradientUv:
    - {x: 0, y: 0}
    - {x: 0, y: 0}
    - {x: 0, y: 0}
    - {x: 0, y: 0}
    advance: 0
    channel: 0
  - p0: {x: 0, y: 0, z: 0}
    p1: {x: 0, y: 0, z: 0}
    uv0: {x: 0, y: 0, z: 0}
    uv1: {x: 0, y: 0, z: 0}
    flipped: 0
    gradientUv:
    - {x: 0, y: 0}
    - {x: 0, y: 0}
    - {x: 0, y: 0}
    - {x: 0, y: 0}
    advance: 0
    channel: 0
  - p0: {x: 0, y: 0, z: 0}
    p1: {x: 0, y: 0, z: 0}
    uv0: {x: 0, y: 0, z: 0}
    uv1: {x: 0, y: 0, z: 0}
    flipped: 0
    gradientUv:
    - {x: 0, y: 0}
    - {x: 0, y: 0}
    - {x: 0, y: 0}
    - {x: 0, y: 0}
    advance: 0
    channel: 0
  - p0: {x: 0, y: 0, z: 0}
    p1: {x: 0, y: 0, z: 0}
    uv0: {x: 0, y: 0, z: 0}
    uv1: {x: 0, y: 0, z: 0}
    flipped: 0
    gradientUv:
    - {x: 0, y: 0}
    - {x: 0, y: 0}
    - {x: 0, y: 0}
    - {x: 0, y: 0}
    advance: 0
    channel: 0
  - p0: {x: 0, y: 0, z: 0}
    p1: {x: 0, y: 0, z: 0}
    uv0: {x: 0, y: 0, z: 0}
    uv1: {x: 0, y: 0, z: 0}
    flipped: 0
    gradientUv:
    - {x: 0, y: 0}
    - {x: 0, y: 0}
    - {x: 0, y: 0}
    - {x: 0, y: 0}
    advance: 0
    channel: 0
  - p0: {x: 0, y: 0, z: 0}
    p1: {x: 0, y: 0, z: 0}
    uv0: {x: 0, y: 0, z: 0}
    uv1: {x: 0, y: 0, z: 0}
    flipped: 0
    gradientUv:
    - {x: 0, y: 0}
    - {x: 0, y: 0}
    - {x: 0, y: 0}
    - {x: 0, y: 0}
    advance: 0
    channel: 0
  - p0: {x: 0, y: 0, z: 0}
    p1: {x: 0, y: 0, z: 0}
    uv0: {x: 0, y: 0, z: 0}
    uv1: {x: 0, y: 0, z: 0}
    flipped: 0
    gradientUv:
    - {x: 0, y: 0}
    - {x: 0, y: 0}
    - {x: 0, y: 0}
    - {x: 0, y: 0}
    advance: 0
    channel: 0
  - p0: {x: 0, y: 0, z: 0}
    p1: {x: 0, y: 0, z: 0}
    uv0: {x: 0, y: 0, z: 0}
    uv1: {x: 0, y: 0, z: 0}
    flipped: 0
    gradientUv:
    - {x: 0, y: 0}
    - {x: 0, y: 0}
    - {x: 0, y: 0}
    - {x: 0, y: 0}
    advance: 0
    channel: 0
  - p0: {x: 0, y: 0, z: 0}
    p1: {x: 0, y: 0, z: 0}
    uv0: {x: 0, y: 0, z: 0}
    uv1: {x: 0, y: 0, z: 0}
    flipped: 0
    gradientUv:
    - {x: 0, y: 0}
    - {x: 0, y: 0}
    - {x: 0, y: 0}
    - {x: 0, y: 0}
    advance: 0
    channel: 0
  - p0: {x: 0, y: 0, z: 0}
    p1: {x: 0, y: 0, z: 0}
    uv0: {x: 0, y: 0, z: 0}
    uv1: {x: 0, y: 0, z: 0}
    flipped: 0
    gradientUv:
    - {x: 0, y: 0}
    - {x: 0, y: 0}
    - {x: 0, y: 0}
    - {x: 0, y: 0}
    advance: 0
    channel: 0
  - p0: {x: 0, y: 0, z: 0}
    p1: {x: 0, y: 0, z: 0}
    uv0: {x: 0, y: 0, z: 0}
    uv1: {x: 0, y: 0, z: 0}
    flipped: 0
    gradientUv:
    - {x: 0, y: 0}
    - {x: 0, y: 0}
    - {x: 0, y: 0}
    - {x: 0, y: 0}
    advance: 0
    channel: 0
  - p0: {x: 0, y: 0, z: 0}
    p1: {x: 0, y: 0, z: 0}
    uv0: {x: 0, y: 0, z: 0}
    uv1: {x: 0, y: 0, z: 0}
    flipped: 0
    gradientUv:
    - {x: 0, y: 0}
    - {x: 0, y: 0}
    - {x: 0, y: 0}
    - {x: 0, y: 0}
    advance: 0
    channel: 0
  - p0: {x: 0, y: 0, z: 0}
    p1: {x: 0, y: 0, z: 0}
    uv0: {x: 0, y: 0, z: 0}
    uv1: {x: 0, y: 0, z: 0}
    flipped: 0
    gradientUv:
    - {x: 0, y: 0}
    - {x: 0, y: 0}
    - {x: 0, y: 0}
    - {x: 0, y: 0}
    advance: 0
    channel: 0
  - p0: {x: 0, y: 0, z: 0}
    p1: {x: 0, y: 0, z: 0}
    uv0: {x: 0, y: 0, z: 0}
    uv1: {x: 0, y: 0, z: 0}
    flipped: 0
    gradientUv:
    - {x: 0, y: 0}
    - {x: 0, y: 0}
    - {x: 0, y: 0}
    - {x: 0, y: 0}
    advance: 0
    channel: 0
  - p0: {x: 0, y: 0, z: 0}
    p1: {x: 0, y: 0, z: 0}
    uv0: {x: 0, y: 0, z: 0}
    uv1: {x: 0, y: 0, z: 0}
    flipped: 0
    gradientUv:
    - {x: 0, y: 0}
    - {x: 0, y: 0}
    - {x: 0, y: 0}
    - {x: 0, y: 0}
    advance: 0
    channel: 0
  - p0: {x: 0, y: 0, z: 0}
    p1: {x: 0, y: 0, z: 0}
    uv0: {x: 0, y: 0, z: 0}
    uv1: {x: 0, y: 0, z: 0}
    flipped: 0
    gradientUv:
    - {x: 0, y: 0}
    - {x: 0, y: 0}
    - {x: 0, y: 0}
    - {x: 0, y: 0}
    advance: 0
    channel: 0
  - p0: {x: 0, y: 0, z: 0}
    p1: {x: 0, y: 0, z: 0}
    uv0: {x: 0, y: 0, z: 0}
    uv1: {x: 0, y: 0, z: 0}
    flipped: 0
    gradientUv:
    - {x: 0, y: 0}
    - {x: 0, y: 0}
    - {x: 0, y: 0}
    - {x: 0, y: 0}
    advance: 0
    channel: 0
  - p0: {x: 0, y: 0, z: 0}
    p1: {x: 0, y: 0, z: 0}
    uv0: {x: 0, y: 0, z: 0}
    uv1: {x: 0, y: 0, z: 0}
    flipped: 0
    gradientUv:
    - {x: 0, y: 0}
    - {x: 0, y: 0}
    - {x: 0, y: 0}
    - {x: 0, y: 0}
    advance: 0
    channel: 0
  - p0: {x: 0, y: 0, z: 0}
    p1: {x: 0, y: 0, z: 0}
    uv0: {x: 0, y: 0, z: 0}
    uv1: {x: 0, y: 0, z: 0}
    flipped: 0
    gradientUv:
    - {x: 0, y: 0}
    - {x: 0, y: 0}
    - {x: 0, y: 0}
    - {x: 0, y: 0}
    advance: 0
    channel: 0
  - p0: {x: 0, y: 0, z: 0}
    p1: {x: 0, y: 0, z: 0}
    uv0: {x: 0, y: 0, z: 0}
    uv1: {x: 0, y: 0, z: 0}
    flipped: 0
    gradientUv:
    - {x: 0, y: 0}
    - {x: 0, y: 0}
    - {x: 0, y: 0}
    - {x: 0, y: 0}
    advance: 0
    channel: 0
  - p0: {x: 0, y: 0, z: 0}
    p1: {x: 0, y: 0, z: 0}
    uv0: {x: 0, y: 0, z: 0}
    uv1: {x: 0, y: 0, z: 0}
    flipped: 0
    gradientUv:
    - {x: 0, y: 0}
    - {x: 0, y: 0}
    - {x: 0, y: 0}
    - {x: 0, y: 0}
    advance: 0
    channel: 0
  - p0: {x: 0, y: 0, z: 0}
    p1: {x: 0, y: 0, z: 0}
    uv0: {x: 0, y: 0, z: 0}
    uv1: {x: 0, y: 0, z: 0}
    flipped: 0
    gradientUv:
    - {x: 0, y: 0}
    - {x: 0, y: 0}
    - {x: 0, y: 0}
    - {x: 0, y: 0}
    advance: 0
    channel: 0
  - p0: {x: 0, y: 0, z: 0}
    p1: {x: 0, y: 0, z: 0}
    uv0: {x: 0, y: 0, z: 0}
    uv1: {x: 0, y: 0, z: 0}
    flipped: 0
    gradientUv:
    - {x: 0, y: 0}
    - {x: 0, y: 0}
    - {x: 0, y: 0}
    - {x: 0, y: 0}
    advance: 0
    channel: 0
  - p0: {x: 0, y: 0, z: 0}
    p1: {x: 0, y: 0, z: 0}
    uv0: {x: 0, y: 0, z: 0}
    uv1: {x: 0, y: 0, z: 0}
    flipped: 0
    gradientUv:
    - {x: 0, y: 0}
    - {x: 0, y: 0}
    - {x: 0, y: 0}
    - {x: 0, y: 0}
    advance: 0
    channel: 0
  - p0: {x: 0, y: 0, z: 0}
    p1: {x: 0, y: 0, z: 0}
    uv0: {x: 0, y: 0, z: 0}
    uv1: {x: 0, y: 0, z: 0}
    flipped: 0
    gradientUv:
    - {x: 0, y: 0}
    - {x: 0, y: 0}
    - {x: 0, y: 0}
    - {x: 0, y: 0}
    advance: 0
    channel: 0
  - p0: {x: 0, y: 0, z: 0}
    p1: {x: 0, y: 0, z: 0}
    uv0: {x: 0, y: 0, z: 0}
    uv1: {x: 0, y: 0, z: 0}
    flipped: 0
    gradientUv:
    - {x: 0, y: 0}
    - {x: 0, y: 0}
    - {x: 0, y: 0}
    - {x: 0, y: 0}
    advance: 0
    channel: 0
  - p0: {x: 0, y: 0, z: 0}
    p1: {x: 0, y: 0, z: 0}
    uv0: {x: 0, y: 0, z: 0}
    uv1: {x: 0, y: 0, z: 0}
    flipped: 0
    gradientUv:
    - {x: 0, y: 0}
    - {x: 0, y: 0}
    - {x: 0, y: 0}
    - {x: 0, y: 0}
    advance: 0
    channel: 0
  - p0: {x: 0, y: 0, z: 0}
    p1: {x: 0, y: 0, z: 0}
    uv0: {x: 0, y: 0, z: 0}
    uv1: {x: 0, y: 0, z: 0}
    flipped: 0
    gradientUv:
    - {x: 0, y: 0}
    - {x: 0, y: 0}
    - {x: 0, y: 0}
    - {x: 0, y: 0}
    advance: 0
    channel: 0
  - p0: {x: 0, y: 0, z: 0}
    p1: {x: 0, y: 0, z: 0}
    uv0: {x: 0, y: 0, z: 0}
    uv1: {x: 0, y: 0, z: 0}
    flipped: 0
    gradientUv:
    - {x: 0, y: 0}
    - {x: 0, y: 0}
    - {x: 0, y: 0}
    - {x: 0, y: 0}
    advance: 0
    channel: 0
  - p0: {x: 0, y: 0, z: 0}
    p1: {x: 0, y: 0, z: 0}
    uv0: {x: 0, y: 0, z: 0}
    uv1: {x: 0, y: 0, z: 0}
    flipped: 0
    gradientUv:
    - {x: 0, y: 0}
    - {x: 0, y: 0}
    - {x: 0, y: 0}
    - {x: 0, y: 0}
    advance: 0
    channel: 0
  - p0: {x: 0, y: 0, z: 0}
    p1: {x: 0, y: 0, z: 0}
    uv0: {x: 0, y: 0, z: 0}
    uv1: {x: 0, y: 0, z: 0}
    flipped: 0
    gradientUv:
    - {x: 0, y: 0}
    - {x: 0, y: 0}
    - {x: 0, y: 0}
    - {x: 0, y: 0}
    advance: 0
    channel: 0
  - p0: {x: 0, y: 0, z: 0}
    p1: {x: 0, y: 0, z: 0}
    uv0: {x: 0, y: 0, z: 0}
    uv1: {x: 0, y: 0, z: 0}
    flipped: 0
    gradientUv:
    - {x: 0, y: 0}
    - {x: 0, y: 0}
    - {x: 0, y: 0}
    - {x: 0, y: 0}
    advance: 0
    channel: 0
  - p0: {x: -0.014084507, y: 0.4084507, z: 0}
    p1: {x: -0.014084507, y: 0.4084507, z: 0}
    uv0: {x: 0.016113281, y: 0.9975586, z: 0}
    uv1: {x: 0.016113281, y: 0.9975586, z: 0}
    flipped: 0
    gradientUv: []
    advance: 0
    channel: 0
  charDictKeys: 
  charDictValues: []
  fontPlatforms: []
  fontPlatformGUIDs: []
  hasPlatformData: 0
  managedFont: 0
  needMaterialInstance: 0
  isPacked: 0
  premultipliedAlpha: 0
  spriteCollection: {fileID: 11400000, guid: 17fe79d5ee8b046f4a67c4dcaba1bdea, type: 2}
  useDictionary: 0
  kerning: []
  largestWidth: 0.32394364
  material: {fileID: 2100000, guid: 96cf6f917563c4913b685a11548b41e1, type: 2}
  gradientTexture: {fileID: 0}
  textureGradients: 0
  gradientCount: 1
  texelSize: {x: 0.014084507, y: 0.014084507}
  invOrthoSize: 2
  halfTargetHeight: 35.5
--- !u!1001 &100100000
Prefab:
  m_ObjectHideFlags: 1
  serializedVersion: 2
  m_Modification:
    m_TransformParent: {fileID: 0}
    m_Modifications: []
    m_RemovedComponents: []
  m_ParentPrefab: {fileID: 0}
  m_RootGameObject: {fileID: 100000}
  m_IsPrefabParent: 1
