%YAML 1.1
%TAG !u! tag:unity3d.com,2011:
--- !u!74 &7400000
AnimationClip:
  m_ObjectHideFlags: 0
  m_PrefabParentObject: {fileID: 0}
  m_PrefabInternal: {fileID: 0}
  m_Name: Right Main Panel Transition
  serializedVersion: 4
  m_AnimationType: 1
  m_Compressed: 0
  m_UseHighQualityCurve: 1
  m_RotationCurves: []
  m_CompressedRotationCurves: []
  m_PositionCurves:
  - curve:
      serializedVersion: 2
      m_Curve:
      - time: 0
        value: {x: 0, y: 0, z: 0}
        inSlope: {x: 400, y: 0, z: 0}
        outSlope: {x: 400, y: 0, z: 0}
        tangentMode: -559038737
      - time: .5
        value: {x: 200, y: 0, z: 0}
        inSlope: {x: 400, y: 0, z: 0}
        outSlope: {x: 400, y: 0, z: 0}
        tangentMode: -559038737
      m_PreInfinity: 2
      m_PostInfinity: 2
    path: 
  m_ScaleCurves: []
  m_FloatCurves:
  - curve:
      serializedVersion: 2
      m_Curve:
      - time: 0
        value: 0
        inSlope: 0
        outSlope: 0
        tangentMode: 10
      m_PreInfinity: 2
      m_PostInfinity: 2
    attribute: m_PlayAutomatically
    path: 
    classID: 111
    script: {fileID: 0}
  - curve:
      serializedVersion: 2
      m_Curve:
      - time: .449999988
        value: -468.239014
        inSlope: -399.999908
        outSlope: -399.999908
        tangentMode: 10
      - time: .5
        value: -488.239014
        inSlope: -399.999908
        outSlope: -399.999908
        tangentMode: 10
      m_PreInfinity: 2
      m_PostInfinity: 2
    attribute: worldToLocal.e03
    path: 
    classID: 114
    script: {fileID: 11500000, guid: ae942c9068183dc40a9d01f648273726, type: 3}
  m_PPtrCurves: []
  m_SampleRate: 60
  m_WrapMode: 0
  m_Bounds:
    m_Center: {x: 0, y: 0, z: 0}
    m_Extent: {x: 0, y: 0, z: 0}
  m_AnimationClipSettings:
    serializedVersion: 2
    m_StartTime: 0
    m_StopTime: 1
    m_OrientationOffsetY: 0
    m_Level: 0
    m_CycleOffset: 0
    m_LoopTime: 0
    m_LoopBlend: 0
    m_LoopBlendOrientation: 0
    m_LoopBlendPositionY: 0
    m_LoopBlendPositionXZ: 0
    m_KeepOriginalOrientation: 0
    m_KeepOriginalPositionY: 1
    m_KeepOriginalPositionXZ: 0
    m_HeightFromFeet: 0
    m_Mirror: 0
  m_EditorCurves:
  - curve:
      serializedVersion: 2
      m_Curve:
      - time: 0
        value: 0
        inSlope: 0
        outSlope: 0
        tangentMode: 10
      m_PreInfinity: 2
      m_PostInfinity: 2
    attribute: m_PlayAutomatically
    path: 
    classID: 111
    script: {fileID: 0}
  - curve:
      serializedVersion: 2
      m_Curve:
      - time: 0
        value: 0
        inSlope: 400
        outSlope: 400
        tangentMode: 10
      - time: .5
        value: 200
        inSlope: 400
        outSlope: 400
        tangentMode: 10
      m_PreInfinity: 2
      m_PostInfinity: 2
    attribute: m_LocalPosition.x
    path: 
    classID: 4
    script: {fileID: 0}
  - curve:
      serializedVersion: 2
      m_Curve:
      - time: 0
        value: 0
        inSlope: 0
        outSlope: 0
        tangentMode: 10
      - time: .5
        value: 0
        inSlope: 0
        outSlope: 0
        tangentMode: 10
      m_PreInfinity: 2
      m_PostInfinity: 2
    attribute: m_LocalPosition.y
    path: 
    classID: 4
    script: {fileID: 0}
  - curve:
      serializedVersion: 2
      m_Curve:
      - time: 0
        value: 0
        inSlope: 0
        outSlope: 0
        tangentMode: 10
      - time: .5
        value: 0
        inSlope: 0
        outSlope: 0
        tangentMode: 10
      m_PreInfinity: 2
      m_PostInfinity: 2
    attribute: m_LocalPosition.z
    path: 
    classID: 4
    script: {fileID: 0}
  - curve:
      serializedVersion: 2
      m_Curve:
      - time: .449999988
        value: -468.239014
        inSlope: -399.999908
        outSlope: -399.999908
        tangentMode: 10
      - time: .5
        value: -488.239014
        inSlope: -399.999908
        outSlope: -399.999908
        tangentMode: 10
      m_PreInfinity: 2
      m_PostInfinity: 2
    attribute: worldToLocal.e03
    path: 
    classID: 114
    script: {fileID: 11500000, guid: ae942c9068183dc40a9d01f648273726, type: 3}
  m_EulerEditorCurves: []
  m_Events: []
