%YAML 1.1
%TAG !u! tag:unity3d.com,2011:
--- !u!21 &2100000
Material:
  serializedVersion: 3
  m_ObjectHideFlags: 0
  m_PrefabParentObject: {fileID: 0}
  m_PrefabInternal: {fileID: 0}
  m_Name: Barrier2Ao
  m_Shader: {fileID: 4800000, guid: 324b5446d89bc9548abc2c8b098bd534, type: 3}
  m_ShaderKeywords: []
  m_CustomRenderQueue: -1
  m_SavedProperties:
    serializedVersion: 2
    m_TexEnvs:
      data:
        first:
          name: _MainTex
        second:
          m_Texture: {fileID: 2800000, guid: cc17a7adb8a75494bbaa69bdaa0a14a8, type: 3}
          m_Scale: {x: 1, y: 1}
          m_Offset: {x: 0, y: 0}
    m_Floats:
      data:
        first:
          name: _Dist
        second: .5
    m_Colors:
      data:
        first:
          name: _Color
        second: {r: 1, g: 1, b: 1, a: 1}
      data:
        first:
          name: _NearCurve
        second: {r: 50, g: 0, b: 0, a: 0}
      data:
        first:
          name: _FarCurve
        second: {r: 15000, g: 0, b: 17000, a: 0}
      data:
        first:
          name: _FadeOutColor
        second: {r: 0, g: 0, b: 0, a: 0}
      data:
        first:
          name: _TintColor
        second: {r: .5, g: .5, b: .5, a: .219607845}
